o Plane
v -1.000000 -1.000000 0.000000
v 1.000000 -1.000000 0.000000
v 1.000000 1.000000 0.000000
v -1.000000 1.000000 0.000000
vt 0.000100 0.999900
vt 0.999900 0.999900
vt 0.999900 0.000100
vt 0.000100 0.000100
vn 0.000000 0.000000 1.000000
usemtl None
s 1
f 1/1/1 2/2/1 3/3/1
f 4/4/1 1/1/1 3/3/1
f 1/1/1 3/3/1 2/2/1
f 4/4/1 3/3/1 1/1/1